{
"label":"MD",
"icon":"ic-MD.png",
"iconsel":"",
"launch":"launch.sh",
"rompath":"../../Roms/MD",
"imgpath":"../../Roms/MD/Imgs",
"useswap":0,
"shortname":0,
"hidebios":0,
"extlist":"gen|md|smd|32x|32X|zip|bin|gg"
}
